{
  "name": "latestdata",
  "plural": "ldata",
  "base": "PersistedModel",
  "idInjection": false,
  "options": {
    "validateUpsert": false
  },
  "properties": {
    "hybris_data": {
      "type": "any",
      "required": true
    },
    "data_id": {
      "type": "any",
      "id":true,
      "required": true
    }
  },
  "validations": [],
  "relations": {},
  "acls": [],
  "methods": {}
}
